{
	"ImportPath": "uploader",
	"GoVersion": "go1.6",
	"GodepVersion": "v64",
	"Packages": [
		"./..."
	],
	"Deps": [
		{
			"ImportPath": "github.com/codegangsta/cli",
			"Comment": "1.2.0-235-gbc465be",
			"Rev": "bc465becccd1d527002fda095fc3c19d9c115029"
		},
		{
			"ImportPath": "github.com/dgrijalva/jwt-go",
			"Comment": "v2.5.0",
			"Rev": "b446e078d613dc395bf50b08884acbeafb19ce50"
		},
		{
			"ImportPath": "github.com/garyburd/redigo/internal",
			"Rev": "8873b2f1995f59d4bcdd2b0dc9858e2cb9bf0c13"
		},
		{
			"ImportPath": "github.com/garyburd/redigo/redis",
			"Rev": "8873b2f1995f59d4bcdd2b0dc9858e2cb9bf0c13"
		},
		{
			"ImportPath": "github.com/gin-gonic/contrib/cors",
			"Rev": "c4d7805f1bf63d16abf2814a59a8c9c9794e6491"
		},
		{
			"ImportPath": "github.com/gin-gonic/gin",
			"Comment": "v1.0rc1-219-g3d002e3",
			"Rev": "3d002e382355cafc15d706b92899b1961d5b79e9"
		},
		{
			"ImportPath": "github.com/gin-gonic/gin/binding",
			"Comment": "v1.0rc1-219-g3d002e3",
			"Rev": "3d002e382355cafc15d706b92899b1961d5b79e9"
		},
		{
			"ImportPath": "github.com/gin-gonic/gin/render",
			"Comment": "v1.0rc1-219-g3d002e3",
			"Rev": "3d002e382355cafc15d706b92899b1961d5b79e9"
		},
		{
			"ImportPath": "github.com/go-sql-driver/mysql",
			"Comment": "v1.2-191-g1421caf",
			"Rev": "1421caf44f6464fd2ee8de694c7508ee13f92964"
		},
		{
			"ImportPath": "github.com/golang/protobuf/proto",
			"Rev": "dda510ac0fd43b39770f22ac6260eb91d377bce3"
		},
		{
			"ImportPath": "github.com/gorilla/websocket",
			"Rev": "e2e3d8414d0fbae04004f151979f4e27c6747fe7"
		},
		{
			"ImportPath": "github.com/jinzhu/gorm",
			"Rev": "2530dcbccd9c9ff7ce5a903e01bbf8601b726112"
		},
		{
			"ImportPath": "github.com/jinzhu/inflection",
			"Rev": "3272df6c21d04180007eb3349844c89a3856bc25"
		},
		{
			"ImportPath": "github.com/manucorporat/sse",
			"Rev": "ee05b128a739a0fb76c7ebd3ae4810c1de808d6d"
		},
		{
			"ImportPath": "github.com/satori/go.uuid",
			"Rev": "f9ab0dce87d815821e221626b772e3475a0d2749"
		},
		{
			"ImportPath": "golang.org/x/crypto/pbkdf2",
			"Rev": "9e7f5dc375abeb9619ea3c5c58502c428f457aa2"
		},
		{
			"ImportPath": "golang.org/x/net/context",
			"Rev": "3e8a7b0329d536af18e227bb21b6da4d1dbbe180"
		},
		{
			"ImportPath": "golang.org/x/sys/unix",
			"Rev": "a60af9cbbc6ab800af4f2be864a31f423a0ae1f2"
		},
		{
			"ImportPath": "gopkg.in/go-playground/validator.v8",
			"Comment": "v8.17.1",
			"Rev": "014792cf3e266caff1e916876be12282b33059e0"
		},
		{
			"ImportPath": "gopkg.in/yaml.v1",
			"Rev": "9f9df34309c04878acc86042b16630b0f696e1de"
		}
	]
}
